<?xml version="1.0" encoding="UTF-8"?>
<svg width="342px" height="313px" viewBox="0 0 342 313" version="1.1" preserveAspectRatio="xMidYMid meet" xmlns="http://www.w3.org/2000/svg" xmlns:xlink="http://www.w3.org/1999/xlink">
    <title>Lovable</title>
    <desc>Lovable Maturity</desc>
    <g id="Page-1" stroke="none" stroke-width="1">
        <g id="lovable">
            <path d="M312.132033,170.710678 L170.710677,312.132034 L29.289321,170.710678 C-9.76310722,131.658249 -9.76310675,68.3417517 29.289321,29.2893219 C68.3417508,-9.76310583 131.658248,-9.7631063 170.710677,29.2893219 C209.763106,-9.76310729 273.079604,-9.76310729 312.132033,29.2893219 C351.184463,68.3417511 351.184463,131.658249 312.132033,170.710678 Z" id="a"></path>
        </g>
    </g>
</svg>
